{
    "NI": {
        "AUT": {
            "count": "0"
        },
        "BEL": {
            "count": "1",
            "Independent": {
                "29579": "Marc TARABELLA"
            }
        },
        "BGR": {
            "count": 0
        },
        "CYP": {
            "count": "0"
        },
        "CZE": {
            "count": "1",
            "Aliance n\u00e1rodn\u00edch sil": {
                "197564": "Hynek BLA\u0160KO"
            }
        },
        "DEU": {
            "count": 3,
            "Independent": {
                "190518": "J\u00f6rg MEUTHEN",
                "197434": "Martin BUSCHMANN"
            },
            "Die PARTEI": {
                "124834": "Martin SONNEBORN"
            }
        },
        "DNK": {
            "count": "0"
        },
        "ESP": {
            "count": "3",
            "Junts per Catalunya - Lliures per Europa": {
                "202352": "Antoni COM\u00cdN I OLIVERES",
                "202351": "Carles PUIGDEMONT I CASAMAJ\u00d3",
                "204443": "Clara PONSAT\u00cd OBIOLS"
            }
        },
        "EST": {
            "count": "0"
        },
        "FIN": {
            "count": "0"
        },
        "FRA": {
            "count": "4",
            "Divers droite": {
                "197683": "Gilbert COLLARD"
            },
            "Ind\u00e9pendant": {
                "197626": "Herve JUVIN",
                "197615": "J\u00e9r\u00f4me RIVI\u00c8RE",
                "197629": "Maxette PIRBAKAS"
            }
        },
        "GRC": {
            "count": 7,
            "Independent": {
                "197819": "Alexis GEORGOULIS",
                "197740": "Athanasios KONSTANTINOU",
                "125109": "Eva KAILI",
                "197737": "Ioannis LAGOS",
                "125067": "Theodoros ZAGORAKIS"
            },
            "Communist Party of Greece": {
                "125093": "Kostas PAPADAKIS",
                "197734": "Lefteris NIKOLAOU-ALAVANOS"
            }
        },
        "HRV": {
            "count": "2",
            "PRAVO I PRAVDA": {
                "197935": "Ivan Vilibor SIN\u010cI\u0106",
                "197438": "Mislav KOLAKU\u0160I\u0106"
            }
        },
        "HUN": {
            "count": "13",
            "Fidesz-Magyar Polg\u00e1ri Sz\u00f6vets\u00e9g-Kereszt\u00e9nydemokrata N\u00e9pp\u00e1rt": {
                "124714": "Andor DELI",
                "124712": "Andrea BOCSKOR",
                "23816": "Andr\u00e1s GY\u00dcRK",
                "124586": "Bal\u00e1zs HIDV\u00c9GHI",
                "27714": "Edina T\u00d3TH",
                "96830": "Enik\u0151 GY\u0150RI",
                "213330": "Ern\u0151 SCHALLER-BAROSS",
                "28150": "Kinga G\u00c1L",
                "197894": "L\u00e1szl\u00f3 TR\u00d3CS\u00c1NYI",
                "28141": "L\u00edvia J\u00c1R\u00d3KA",
                "96826": "Tam\u00e1s DEUTSCH",
                "96829": "\u00c1d\u00e1m K\u00d3SA"
            },
            "Jobbik \u2013 Konzervat\u00edvok": {
                "198063": "M\u00e1rton GY\u00d6NGY\u00d6SI"
            }
        },
        "IRL": {
            "count": "0"
        },
        "ITA": {
            "count": 9,
            "Movimento 5 Stelle": {
                "124833": "Laura FERRARA",
                "239258": "Maria Angela DANZ\u00cc",
                "197795": "Mario FURORE",
                "197619": "Sabrina PIGNEDOLI",
                "124777": "Tiziana BEGHIN"
            },
            "Partito Democratico": {
                "96880": "Andrea COZZOLINO"
            },
            "Democrazia Cristiana": {
                "197822": "Francesca DONATO"
            },
            "Independent": {
                "197804": "Dino GIARRUSSO"
            },
            "Alleanza Verdi e Sinistra": {
                "197791": "Massimiliano SMERIGLIO"
            }
        },
        "LTU": {
            "count": "1",
            "Darbo partija": {
                "96698": "Viktor USPASKICH"
            }
        },
        "LUX": {
            "count": "0"
        },
        "LVA": {
            "count": "1",
            "Latvijas Krievu savien\u012bba": {
                "28619": "Tatjana \u017dDANOKA"
            }
        },
        "MLT": {
            "count": "0"
        },
        "NLD": {
            "count": "1",
            "Forum voor Democratie": {
                "125025": "Marcel DE GRAAFF"
            }
        },
        "POL": {
            "count": "0"
        },
        "PRT": {
            "count": "0"
        },
        "ROU": {
            "count": "1",
            "Alian\u021ba pentru Unirea Rom\u00e2nilor": {
                "197657": "Tudor CIUHODARU"
            }
        },
        "SVK": {
            "count": "4",
            "SMER-Soci\u00e1lna demokracia": {
                "96653": "Katar\u00edna ROTH NEVE\u010eALOV\u00c1",
                "23868": "Monika BE\u0147OV\u00c1"
            },
            "Slovak PATRIOT": {
                "197764": "Miroslav RADA\u010cOVSK\u00dd"
            },
            "Hnutie Republika": {
                "197763": "Milan UHR\u00cdK"
            }
        },
        "SVN": {
            "count": "0"
        },
        "SWE": {
            "count": "0"
        }
    },
    "ID": {
        "AUT": {
            "count": "3",
            "Freiheitliche Partei \u00d6sterreichs": {
                "38511": "Georg MAYER",
                "125001": "Harald VILIMSKY",
                "198176": "Roman HAIDER"
            }
        },
        "BEL": {
            "count": "3",
            "Vlaams Belang": {
                "197472": "Filip DE MAN",
                "124973": "Gerolf ANNEMANS",
                "185771": "Tom VANDENDRIESSCHE"
            }
        },
        "BGR": {
            "count": "0"
        },
        "CYP": {
            "count": "0"
        },
        "CZE": {
            "count": "1",
            "Svoboda a p\u0159\u00edm\u00e1 demokracie": {
                "197556": "Ivan DAVID"
            }
        },
        "DEU": {
            "count": "9",
            "Alternative f\u00fcr Deutschland": {
                "197489": "Bernhard ZIMNIOK",
                "197475": "Christine ANDERSON",
                "197488": "Guido REIL",
                "132191": "Gunnar BECK",
                "197482": "Joachim KUHS",
                "128483": "Markus BUCHHEIT",
                "197481": "Maximilian KRAH",
                "197480": "Nicolaus FEST",
                "197483": "Sylvia LIMMER"
            }
        },
        "DNK": {
            "count": "1",
            "Dansk Folkeparti": {
                "124875": "Anders Primdahl VISTISEN"
            }
        },
        "ESP": {
            "count": "0"
        },
        "EST": {
            "count": "1",
            "Eesti Konservatiivne Rahvaerakond": {
                "197493": "Jaak MADISON"
            }
        },
        "FIN": {
            "count": "0"
        },
        "FRA": {
            "count": "18",
            "Rassemblement national": {
                "197690": "Andr\u00e9 ROUG\u00c9",
                "182995": "Annika BRUNA",
                "197680": "Aur\u00e9lia BEIGNEUX",
                "94649": "Catherine GRISET",
                "124771": "Dominique BILDE",
                "236051": "Eric MINARDI",
                "189065": "France JAMET",
                "124738": "Gilles LEBRETON",
                "124770": "Jean-Fran\u00e7ois JALKH",
                "204421": "Jean-Lin LACAPELLE",
                "197628": "Jean-Paul GARRAUD",
                "131580": "Jordan BARDELLA",
                "236050": "Marie DAUCHY",
                "197691": "Mathilde ANDROU\u00cbT",
                "236052": "Patricia CHAGNON",
                "197687": "Philippe OLIVIER",
                "197623": "Thierry MARIANI",
                "197627": "Virginie JORON"
            }
        },
        "GRC": {
            "count": "0"
        },
        "HRV": {
            "count": "0"
        },
        "HUN": {
            "count": "0"
        },
        "IRL": {
            "count": "0"
        },
        "ITA": {
            "count": 23,
            "Lega": {
                "36392": "Aldo PATRICIELLO",
                "197610": "Alessandra BASSO",
                "99283": "Alessandro PANZA",
                "183793": "Angelo CIOCCA",
                "197788": "Anna BONFRISCO",
                "197806": "Annalisa TARDINO",
                "197787": "Antonio Maria RINALDI",
                "192635": "Danilo Oscar LANCINI",
                "197611": "Elena LIZZI",
                "197608": "Gianantonio DA RE",
                "197582": "Gianna GANCIA",
                "197580": "Isabella TOVAGLIERI",
                "35016": "Marco CAMPOMENOSI",
                "124780": "Marco ZANNI",
                "197796": "Massimo CASANOVA",
                "197826": "Matteo ADINOLFI",
                "239256": "Paola GHIDONI",
                "101039": "Paolo BORCHIA",
                "197616": "Rosanna CONTE",
                "197578": "Silvia SARDONE",
                "197786": "Susanna CECCARDI",
                "197799": "Valentino GRANT",
                "243912": "Maria Veronica ROSSI"
            }
        },
        "LTU": {
            "count": "0"
        },
        "LUX": {
            "count": "0"
        },
        "LVA": {
            "count": "0"
        },
        "MLT": {
            "count": "0"
        },
        "NLD": {
            "count": "0"
        },
        "POL": {
            "count": "0"
        },
        "PRT": {
            "count": "0"
        },
        "ROU": {
            "count": "0"
        },
        "SVK": {
            "count": "0"
        },
        "SVN": {
            "count": "0"
        },
        "SWE": {
            "count": "0"
        }
    },
    "ECR": {
        "AUT": {
            "count": "0"
        },
        "BEL": {
            "count": "3",
            "Nieuw-Vlaamse Alliantie": {
                "197469": "Assita KANKO",
                "197467": "Geert BOURGEOIS",
                "125106": "Johan VAN OVERTVELDT"
            }
        },
        "BGR": {
            "count": "2",
            "VMRO": {
                "197849": "Andrey SLABAKOV",
                "124873": "Angel DZHAMBAZKI"
            }
        },
        "CYP": {
            "count": "0"
        },
        "CZE": {
            "count": "4",
            "Ob\u010dansk\u00e1 demokratick\u00e1 strana": {
                "197537": "Alexandr VONDRA",
                "96713": "Ev\u017een TO\u0160ENOVSK\u00dd",
                "23712": "Jan ZAHRADIL",
                "197552": "Veronika VRECIONOV\u00c1"
            }
        },
        "DEU": {
            "count": "1",
            "B\u00fcndnis Deutschland": {
                "197478": "Lars Patrick BERG"
            }
        },
        "DNK": {
            "count": "0"
        },
        "ESP": {
            "count": "4",
            "VOX": {
                "197831": "Hermann TERTSCH",
                "197829": "Jorge BUXAD\u00c9 VILLALBA",
                "204414": "Margarita DE LA PISA CARRI\u00d3N",
                "198096": "Mazaly AGUILAR"
            }
        },
        "EST": {
            "count": "0"
        },
        "FIN": {
            "count": "2",
            "Independent": {
                "197596": "Teuvo HAKKARAINEN"
            },
            "Perussuomalaiset": {
                "132366": "Pirkko RUOHONEN-LERNER"
            }
        },
        "FRA": {
            "count": "1",
            "Reconqu\u00eate!": {
                "124760": "Nicolas BAY"
            }
        },
        "GRC": {
            "count": "1",
            "Elliniki Lusi-Greek Solution": {
                "198490": "Emmanouil FRAGKOS"
            }
        },
        "HRV": {
            "count": "1",
            "Hrvatski suverenisti": {
                "221463": "Ladislav IL\u010cI\u0106"
            }
        },
        "HUN": {
            "count": "0"
        },
        "IRL": {
            "count": "0"
        },
        "ITA": {
            "count": "10",
            "FRATELLI D\u0027 ITALIA": {
                "96810": "Carlo FIDANZA",
                "197794": "Chiara GEMMA",
                "239260": "Denis NESCI",
                "239262": "Elisabetta DE BLASIS",
                "197824": "Giuseppe MILAZZO",
                "197820": "Nicola PROCACCINI",
                "197607": "Pietro FIOCCHI",
                "197825": "Raffaele STANCANELLI",
                "4746": "Sergio BERLATO",
                "204334": "Vincenzo SOFO"
            }
        },
        "LTU": {
            "count": "1",
            "Lietuvos lenk\u0173 rinkim\u0173 akcija \u2013 Krik\u0161\u010dioni\u0161k\u0173 \u0161eim\u0173 s\u0105junga": {
                "96697": "Waldemar TOMASZEWSKI"
            }
        },
        "LUX": {
            "count": "0"
        },
        "LVA": {
            "count": "2",
            "Nacion\u0101l\u0101 apvien\u012bba \u0022Visu Latvijai!\u0022-\u0022T\u0113vzemei un Br\u012bv\u012bbai\/LNNK\u0022": {
                "256134": "Ansis P\u016aPOLS",
                "28615": "Roberts Z\u012aLE"
            }
        },
        "MLT": {
            "count": "0"
        },
        "NLD": {
            "count": "5",
            "JA21": {
                "218349": "Michiel HOOGEVEEN"
            },
            "Independent": {
                "197776": "Rob ROOKEN",
                "197709": "Robert ROOS"
            },
            "Meer Directe Democratie": {
                "204733": "Dorien ROOKMAKER"
            },
            "Staatkundig Gereformeerde Partij": {
                "197773": "Bert-Jan RUISSEN"
            }
        },
        "POL": {
            "count": "27",
            "Prawo i Sprawiedliwo\u015b\u0107": {
                "23788": "Adam BIELAN",
                "197541": "And\u017celika Anna MO\u017bD\u017bANOWSKA",
                "28353": "Anna FOTYGA",
                "197572": "Anna ZALEWSKA",
                "197538": "Beata MAZUREK",
                "197553": "Beata SZYD\u0141O",
                "197545": "Bogdan RZO\u0143CA",
                "204346": "Dominik TARCZY\u0143SKI",
                "197532": "El\u017cbieta KRUK",
                "197544": "El\u017cbieta RAFALSKA",
                "197559": "Grzegorz TOBISZOWSKI",
                "197520": "Izabela-Helena KLOC",
                "28297": "Jacek SARYUSZ-WOLSKI",
                "124877": "Jadwiga WI\u015aNIEWSKA",
                "197501": "Joachim Stanis\u0142aw BRUDZI\u0143SKI",
                "197530": "Joanna KOPCI\u0143SKA",
                "124887": "Karol KARSKI",
                "124884": "Kosma Z\u0141OTOWSKI",
                "197518": "Krzysztof JURGIEL",
                "250538": "Rafa\u0142 ROMANOWSKI",
                "96796": "Ryszard Antoni LEGUTKO",
                "28372": "Ryszard CZARNECKI",
                "96801": "Tomasz Piotr POR\u0118BA",
                "197566": "Witold Jan WASZCZYKOWSKI",
                "124891": "Zdzis\u0142aw KRASNOD\u0118BSKI"
            },
            "Solidarna Polska Zbigniewa Ziobro": {
                "197516": "Patryk JAKI"
            },
            "Suwerenna Polska": {
                "197519": "Beata KEMPA"
            }
        },
        "PRT": {
            "count": "0"
        },
        "ROU": {
            "count": "1",
            "PARTIDULUI NA\u021aIONAL CONSERVATOR ROM\u00c2N (PNCR)": {
                "197655": "Cristian TERHE\u015e"
            }
        },
        "SVK": {
            "count": "1",
            "Sloboda a Solidarita": {
                "197767": "Eugen JURZYCA"
            }
        },
        "SVN": {
            "count": "0"
        },
        "SWE": {
            "count": "3",
            "Sverigedemokraterna": {
                "123562": "Charlie WEIMERS",
                "238639": "Johan NISSINEN",
                "124996": "Peter LUNDGREN"
            }
        }
    },
    "PPE": {
        "AUT": {
            "count": "7",
            "\u00d6sterreichische Volkspartei": {
                "197648": "Alexander BERNHUBER",
                "197652": "Angelika WINZIG",
                "197667": "Barbara THALER",
                "204368": "Christian SAGARTZ",
                "190713": "Lukas MANDL",
                "4246": "Othmar KARAS",
                "249443": "Wolfram PIRCHNER"
            }
        },
        "BEL": {
            "count": "4",
            "Christlich Soziale Partei": {
                "24922": "Pascal ARIMONT"
            },
            "Christen-Democratisch \u0026 Vlaams": {
                "197455": "Cindy FRANSSEN",
                "129164": "Tom VANDENKENDELAERE"
            },
            "Les Engag\u00e9s": {
                "197458": "Beno\u00eet LUTGEN"
            }
        },
        "BGR": {
            "count": "7",
            "Citizens for European Development of Bulgaria": {
                "97968": "Andrey KOVATCHEV",
                "107212": "Andrey NOVAKOV",
                "189525": "Asim ADEMOV",
                "124850": "Emil RADEV",
                "98341": "Eva MAYDELL"
            },
            "Union of Democratic Forces": {
                "197836": "Alexander ALEXANDROV YORDANOV"
            },
            "Democrats for Strong Bulgaria": {
                "197839": "Radan KANEV"
            }
        },
        "CYP": {
            "count": "2",
            "Democratic Rally": {
                "239271": "Eleni STAVROU",
                "197414": "Loucas FOURLAS"
            }
        },
        "CZE": {
            "count": "5",
            "TOP 09 a Starostov\u00e9": {
                "125706": "Ji\u0159\u00ed POSP\u00cd\u0160IL",
                "124701": "Lud\u011bk NIEDERMAYER"
            },
            "Starostov\u00e9 a nez\u00e1visli": {
                "124704": "Stanislav POL\u010c\u00c1K"
            },
            "K\u0159es\u0165ansk\u00e1 a demokratick\u00e1 unie - \u010ceskoslovensk\u00e1 strana lidov\u00e1": {
                "124710": "Michaela \u0160OJDROV\u00c1",
                "124713": "Tom\u00e1\u0161 ZDECHOVSK\u00dd"
            }
        },
        "DEU": {
            "count": "30",
            "Christlich Demokratische Union Deutschlands": {
                "28223": "Andreas SCHWAB",
                "96761": "Axel VOSS",
                "28226": "Christian EHLER",
                "197422": "Christine SCHNEIDER",
                "28219": "Daniel CASPARY",
                "124806": "David MCALLISTER",
                "188945": "Dennis RADTKE",
                "197408": "Hildegard BENTELE",
                "124807": "Jens GIESEKE",
                "226260": "Karolin BRAUNSBERGER-REINHOLD",
                "99945": "Lena D\u00dcPONT",
                "197429": "Marion WALSMANN",
                "28224": "Markus PIEPER",
                "2341": "Michael GAHLER",
                "197412": "Niclas HERBST",
                "124808": "Norbert LINS",
                "96772": "Peter JAHR",
                "1927": "Peter LIESE",
                "2323": "Rainer WIELAND",
                "197425": "Ralf SEEKATZ",
                "96756": "Sabine VERHEYEN",
                "197410": "Stefan BERGER",
                "197426": "Sven SIMON"
            },
            "Christlich-Soziale Union in Bayern e.V.": {
                "4289": "Angelika NIEBLER",
                "197473": "Christian DOLESCHAL",
                "28229": "Manfred WEBER",
                "1917": "Markus FERBER",
                "197427": "Marlene MORTLER",
                "96780": "Monika HOHLMEIER"
            },
            "Familien-Partei Deutschlands": {
                "251874": "Niels GEUKING"
            }
        },
        "DNK": {
            "count": "1",
            "Det Konservative Folkeparti": {
                "197515": "Pernille WEISS"
            }
        },
        "ESP": {
            "count": "13",
            "Partido Popular": {
                "247737": "Ana COLLADO JIM\u00c9NEZ",
                "28399": "Antonio L\u00d3PEZ-IST\u00daRIZ WHITE",
                "197711": "Dolors MONTSERRAT",
                "28400": "Francisco Jos\u00e9 MILL\u00c1N MON",
                "96936": "Gabriel MATO",
                "197679": "Isabel BENJUMEA BENJUMEA",
                "197606": "Javier ZARZALEJOS",
                "1992": "Jos\u00e9 Manuel GARC\u00cdA-MARGALLO Y MARFIL",
                "197621": "Juan Ignacio ZOIDO \u00c1LVAREZ",
                "197777": "Leopoldo L\u00d3PEZ GIL",
                "96808": "Pablo ARIAS ECHEVERR\u00cdA",
                "28390": "Pilar DEL CASTILLO VERA",
                "96811": "Rosa ESTAR\u00c0S FERRAGUT"
            }
        },
        "EST": {
            "count": "1",
            "Isamaa": {
                "204449": "Riho TERRAS"
            }
        },
        "FIN": {
            "count": "3",
            "Kansallinen Kokoomus": {
                "124726": "Henna VIRKKUNEN",
                "112611": "Petri SARVAMAA",
                "40599": "Sirpa PIETIK\u00c4INEN"
            }
        },
        "FRA": {
            "count": "8",
            "Les R\u00e9publicains": {
                "24594": "Anne SANDER",
                "96747": "Arnaud DANJEAN",
                "5565": "Brice HORTEFEUX",
                "197534": "Fran\u00e7ois-Xavier BELLAMY",
                "190774": "Geoffroy DIDIER",
                "249284": "Laurence SAILLIET",
                "72779": "Nadine MORANO"
            },
            "Les centristes": {
                "197536": "Nathalie COLIN-OESTERL\u00c9"
            }
        },
        "GRC": {
            "count": 6,
            "Nea Demokratia": {
                "197695": "Anna-Michelle ASIMAKOPOULOU",
                "125065": "Elissavet VOZEMBERG-VRIONIDI",
                "125068": "Manolis KEFALOGIANNIS",
                "125064": "Maria SPYRAKI",
                "197692": "Stelios KYMPOUROPOULOS",
                "197662": "Vangelis MEIMARAKIS"
            }
        },
        "HRV": {
            "count": "4",
            "Hrvatska demokratska zajednica": {
                "197413": "Karlo RESSLER",
                "202036": "Sun\u010dana GLAVAK",
                "197417": "Tomislav SOKOL",
                "185341": "\u017deljana ZOVKO"
            }
        },
        "HUN": {
            "count": "1",
            "Kereszt\u00e9nydemokrata N\u00e9pp\u00e1rt": {
                "124715": "Gy\u00f6rgy H\u00d6LV\u00c9NYI"
            }
        },
        "IRL": {
            "count": "5",
            "Fine Gael Party": {
                "209896": "Colm MARKEY",
                "124988": "Deirdre CLUNE",
                "197720": "Frances FITZGERALD",
                "197863": "Maria WALSH",
                "96668": "Se\u00e1n KELLY"
            }
        },
        "ITA": {
            "count": "12",
            "Forza Italia": {
                "28429": "Alessandra MUSSOLINI",
                "124861": "Caterina CHINNICI",
                "243979": "Francesca PEPPUCCI",
                "124828": "Fulvio MARTUSCIELLO",
                "124831": "Isabella ADINOLFI",
                "96775": "Lara COMI",
                "197798": "Lucia VUOLO",
                "125670": "Massimiliano SALINI",
                "204333": "Salvatore DE MEO",
                "197586": "Stefania ZAMBELLI"
            },
            "S\u00fcdtiroler Volkspartei": {
                "96787": "Herbert DORFMANN"
            },
            "Independent": {
                "239255": "Matteo GAZZINI"
            }
        },
        "LTU": {
            "count": "4",
            "T\u0117vyn\u0117s s\u0105junga-Lietuvos krik\u0161\u010dionys demokratai": {
                "197843": "Andrius KUBILIUS",
                "197835": "Au\u0161ra SEIBUTYT\u0116",
                "197841": "Liudas MA\u017dYLIS",
                "197840": "Rasa JUKNEVI\u010cIEN\u0116"
            }
        },
        "LUX": {
            "count": "2",
            "Parti chr\u00e9tien social luxembourgeois": {
                "197421": "Isabel WISELER-LIMA",
                "249603": "Martine KEMP"
            }
        },
        "LVA": {
            "count": 3,
            "Partija \u0022VIENOT\u012aBA\u0022": {
                "28617": "Inese VAIDERE",
                "96934": "Sandra KALNIETE",
                "130256": "Dace MELB\u0100RDE"
            }
        },
        "MLT": {
            "count": "2",
            "Partit Nazzjonalista": {
                "28122": "David CASA",
                "118859": "Roberta METSOLA"
            }
        },
        "NLD": {
            "count": "6",
            "Christen Democratisch App\u00e8l": {
                "125030": "Annie SCHREIJER-PIERIK",
                "4560": "Antonius MANDERS",
                "253043": "Henk Jan ORMEL",
                "95074": "Jeroen LENAERS",
                "197778": "Tom BERENDSEN"
            },
            "ChristenUnie": {
                "247709": "Anja HAGA"
            }
        },
        "POL": {
            "count": "16",
            "Independent": {
                "197542": "Janina OCHOJSKA",
                "197490": "Magdalena ADAMOWICZ",
                "250237": "W\u0142odzimierz Witold KARPI\u0143SKI"
            },
            "Platforma Obywatelska": {
                "197514": "Andrzej HALICKI",
                "96779": "Danuta Maria H\u00dcBNER",
                "96791": "El\u017cbieta Katarzyna \u0141UKACIJEWSKA",
                "197525": "Ewa KOPACZ",
                "28288": "Jan OLBRYCHT",
                "23781": "Janusz LEWANDOWSKI",
                "197510": "Jaros\u0142aw DUDA",
                "28269": "Jerzy BUZEK",
                "251324": "Krzysztof BREJZA",
                "197513": "Tomasz FRANKOWSKI",
                "250235": "Witold PAHL"
            },
            "Polskie Stronnictwo Ludowe": {
                "197517": "Adam JARUBAS",
                "96771": "Jaros\u0142aw KALINOWSKI"
            }
        },
        "PRT": {
            "count": 7,
            "Partido Social Democrata": {
                "1892": "Carlos COELHO",
                "197738": "L\u00eddia PEREIRA",
                "124734": "Cl\u00e1udia MONTEIRO DE AGUIAR",
                "96899": "Jos\u00e9 Manuel FERNANDES",
                "96867": "Maria da Gra\u00e7a CARVALHO",
                "96903": "Paulo RANGEL"
            },
            "Partido do Centro Democr\u00e1tico Social-Partido Popular": {
                "96978": "Nuno MELO"
            }
        },
        "ROU": {
            "count": "14",
            "Partidul Mi\u0219carea Popular\u0103": {
                "197672": "Eugen TOMAC",
                "197671": "Traian B\u0102SESCU"
            },
            "Partidul Na\u0163ional Liberal": {
                "38420": "Cristian-Silviu BU\u015eOI",
                "197647": "Dan-\u015etefan MOTREANU",
                "125012": "Daniel BUDA",
                "197649": "Gheorghe FALC\u0102",
                "202112": "Gheorghe-Vlad NISTOR",
                "197636": "Ioan-Rare\u015f BOGDAN",
                "33982": "Marian-Jean MARINESCU",
                "197646": "Mircea-Gheorghe HAVA",
                "124802": "Siegfried MURE\u015eAN",
                "197637": "Vasile BLAGA"
            },
            "Uniunea Democrat\u0103 Maghiar\u0103 din Rom\u00e2nia": {
                "39725": "Iuliu WINKLER",
                "98582": "Lor\u00e1nt VINCZE"
            }
        },
        "SVK": {
            "count": "4",
            "Independent": {
                "197771": "Vladim\u00edr BIL\u010c\u00cdK"
            },
            "Kres\u0165anskodemokratick\u00e9 hnutie": {
                "124929": "Ivan \u0160TEFANEC",
                "204336": "Miriam LEXMANN"
            },
            "Oby\u010dajn\u00ed \u013eudia a nez\u00e1visl\u00e9 osobnosti": {
                "197765": "Peter POLL\u00c1K"
            }
        },
        "SVN": {
            "count": "4",
            "Slovenska ljudska stranka": {
                "125004": "Franc BOGOVI\u010c"
            },
            "Nova Slovenija \u2013 Kr\u0161\u010danski demokrati": {
                "28294": "Ljudmila NOVAK"
            },
            "Slovenska demokratska stranka": {
                "96933": "Milan ZVER",
                "125104": "Romana TOMC"
            }
        },
        "SWE": {
            "count": "6",
            "Moderaterna": {
                "197406": "Arba KOKALARI",
                "197404": "Jessica POLFJ\u00c4RD",
                "197405": "J\u00f6rgen WARBORN",
                "197402": "Tomas TOB\u00c9"
            },
            "Kristdemokraterna": {
                "197393": "David LEGA"
            },
            "Folklistan": {
                "197390": "Sara SKYTTEDAL"
            }
        }
    },
    "Renew": {
        "AUT": {
            "count": "1",
            "NEOS \u2013 Das Neue \u00d6sterreich": {
                "197632": "Claudia GAMON"
            }
        },
        "BEL": {
            "count": "4",
            "Mouvement R\u00e9formateur": {
                "4253": "Fr\u00e9d\u00e9rique RIES",
                "197463": "Olivier CHASTEL"
            },
            "Open Vlaamse Liberalen en Democraten": {
                "97058": "Guy VERHOFSTADT",
                "130100": "Hilde VAUTMANS"
            }
        },
        "BGR": {
            "count": "3",
            "Movement for Rights and Freedoms": {
                "197848": "Atidzhe ALIEVA-VELI",
                "124866": "Ilhan KYUCHYUK",
                "125128": "Iskra MIHAYLOVA"
            }
        },
        "CYP": {
            "count": "0"
        },
        "CZE": {
            "count": "5",
            "Independent": {
                "124708": "Dita CHARANZOV\u00c1",
                "124709": "Martina DLABAJOV\u00c1"
            },
            "ANO 2011": {
                "197526": "Martin HLAV\u00c1\u010cEK",
                "197528": "Ond\u0159ej KNOTEK",
                "118949": "Ond\u0159ej KOVA\u0158\u00cdK"
            }
        },
        "DEU": {
            "count": "7",
            "Freie W\u00e4hler": {
                "197430": "Engin EROGLU",
                "124862": "Ulrike M\u00dcLLER"
            },
            "Freie Demokratische Partei": {
                "197443": "Andreas GL\u00dcCK",
                "197432": "Jan-Christoph OETJEN",
                "251268": "Michael KAUCH",
                "197445": "Moritz K\u00d6RNER",
                "197444": "Svenja HAHN"
            }
        },
        "DNK": {
            "count": "6",
            "Venstre, Danmarks Liberale Parti": {
                "197558": "Asger CHRISTENSEN",
                "239972": "Erik POULSEN",
                "96709": "Morten L\u00d8KKEGAARD"
            },
            "MODERATERNE": {
                "239973": "Bergur L\u00f8kke RASMUSSEN"
            },
            "Independent": {
                "197567": "Karen MELCHIOR"
            },
            "Det Radikale Venstre": {
                "124872": "Morten PETERSEN"
            }
        },
        "ESP": {
            "count": "9",
            "Ciudadanos \u2013 Partido de la Ciudadan\u00eda": {
                "204400": "Adri\u00e1n V\u00c1ZQUEZ L\u00c1ZARA",
                "237320": "Eva Maria POPTCHEVA",
                "126644": "Jordi CA\u00d1AS",
                "197779": "Jos\u00e9 Ram\u00f3n BAUZ\u00c1 D\u00cdAZ",
                "4344": "Mar\u00eda Soraya RODR\u00cdGUEZ RAMOS",
                "197784": "Susana SOL\u00cdS P\u00c9REZ"
            },
            "Partido Nacionalista Vasco": {
                "96922": "Izaskun BILBAO BARANDICA"
            },
            "Independiente": {
                "125005": "Javier NART"
            },
            "Delegaci\u00f3n Ciudadanos Europeos": {
                "125038": "Maite PAGAZAURTUND\u00daA"
            }
        },
        "EST": {
            "count": "3",
            "Eesti Reformierakond": {
                "124696": "Andrus ANSIP",
                "129073": "Urmas PAET"
            },
            "Eesti Keskerakond": {
                "124700": "Yana TOOM"
            }
        },
        "FIN": {
            "count": "3",
            "Suomen Keskusta": {
                "191693": "Elsi KATAINEN",
                "197563": "Mauri PEKKARINEN"
            },
            "Svenska folkpartiet": {
                "114268": "Nils TORVALDS"
            }
        },
        "FRA": {
            "count": "23",
            "Parti Radical": {
                "247122": "Catherine AMALRIC"
            },
            "La R\u00e9publique en marche": {
                "197585": "Pierre KARLESKIND",
                "197551": "St\u00e9phane BIJOUX"
            },
            "Horizons": {
                "197577": "Gilles BOYER"
            },
            "Mouvement D\u00e9mocrate": {
                "197505": "Catherine CHABAUD",
                "197557": "Christophe GRUDLER",
                "197589": "Laurence FARRENG",
                "197502": "Marie-Pierre VEDRENNE",
                "234344": "Max ORVILLE",
                "197576": "Sylvie BRUNET"
            },
            "Liste Renaissance": {
                "197543": "Bernard GUETTA",
                "204416": "Ilana CICUREL",
                "197547": "Ir\u00e8ne TOLLERET",
                "197494": "Nathalie LOISEAU",
                "96711": "Pascal CANFIN",
                "204419": "Sandro GOZI",
                "197581": "St\u00e9phanie YON-COURTIN"
            },
            "LISTE L\u0027EUROPE ENSEMBLE": {
                "197504": "J\u00e9r\u00e9my DECERLE"
            },
            "Renaissance": {
                "251859": "Guy LAVOCAT",
                "197511": "Salima YENBOU",
                "135511": "Val\u00e9rie HAYER"
            },
            "Agir - La Droite constructive": {
                "22858": "Fabienne KELLER"
            },
            "Mouvement Radical Social-Lib\u00e9ral": {
                "96885": "Dominique RIQUET"
            }
        },
        "GRC": {
            "count": "1",
            "Independent": {
                "125063": "Georgios KYRTSOS"
            }
        },
        "HRV": {
            "count": "1",
            "Istarski demokratski sabor - Dieta democratica istriana": {
                "197419": "Valter FLEGO"
            }
        },
        "HUN": {
            "count": "2",
            "Momentum": {
                "197595": "Anna J\u00falia DON\u00c1TH",
                "197588": "Katalin CSEH"
            }
        },
        "IRL": {
            "count": "2",
            "Fianna F\u00e1il Party": {
                "204332": "Barry ANDREWS",
                "197818": "Billy KELLEHER"
            }
        },
        "ITA": {
            "count": "4",
            "Azione": {
                "124812": "Fabio Massimo CASTALDO",
                "192634": "Giuseppe FERRANDINO"
            },
            "Italia Viva \u2013 Il Centro": {
                "124821": "Nicola DANTI"
            },
            "Independent": {
                "125237": "Marco ZULLO"
            }
        },
        "LTU": {
            "count": "1",
            "Lietuvos Respublikos liberal\u0173 s\u0105j\u016bdis": {
                "124766": "Petras AU\u0160TREVI\u010cIUS"
            }
        },
        "LUX": {
            "count": "2",
            "Parti d\u00e9mocratique": {
                "840": "Charles GOERENS"
            },
            "Fokus": {
                "197418": "Monica SEMEDO"
            }
        },
        "LVA": {
            "count": "1",
            "Att\u012bst\u012bbai\/Par!": {
                "197624": "Ivars IJABS"
            }
        },
        "MLT": {
            "count": "0"
        },
        "NLD": {
            "count": "7",
            "Volkspartij voor Vrijheid en Democratie": {
                "197780": "Bart GROOTHUIS",
                "190519": "Caroline NAGTEGAAL",
                "229519": "Catharina RINZEMA",
                "58789": "Jan HUITEMA",
                "197781": "Malik AZMANI"
            },
            "Volt": {
                "28266": "Sophia IN \u0027T VELD"
            },
            "Democraten 66": {
                "197868": "Samira RAFAELA"
            }
        },
        "POL": {
            "count": "1",
            "Polska 2050": {
                "96776": "R\u00f3\u017ca THUN UND HOHENSTEIN"
            }
        },
        "PRT": {
            "count": "0"
        },
        "ROU": {
            "count": "7",
            "Uniunea Salva\u021bi Rom\u00e2nia": {
                "197668": "Vlad-Marius BOTO\u015e"
            },
            "REPER": {
                "212855": "Alin MITU\u021aA",
                "197631": "Dacian CIOLO\u015e",
                "197663": "Drago\u015f P\u00ceSLARU",
                "197665": "Drago\u015f TUDORACHE",
                "134605": "Ramona STRUGARIU"
            },
            "Independent": {
                "209140": "Vlad GHEORGHE"
            }
        },
        "SVK": {
            "count": "4",
            "Independent": {
                "249826": "Josef MIH\u00c1L",
                "197766": "Lucia \u010eURI\u0160 NICHOLSONOV\u00c1"
            },
            "Progres\u00edvne Slovensko": {
                "197770": "Martin HOJS\u00cdK",
                "197769": "Michal WIEZIK"
            }
        },
        "SVN": {
            "count": "2",
            "Zeleni Slovenije": {
                "197452": "Klemen GRO\u0160ELJ"
            },
            "GS": {
                "197447": "Irena JOVEVA"
            }
        },
        "SWE": {
            "count": "3",
            "Centerpartiet": {
                "197400": "Abir AL-SAHLANI",
                "214839": "Emma WIESNER"
            },
            "Liberalerna": {
                "197401": "Karin KARLSBRO"
            }
        }
    },
    "S\u0026D": {
        "AUT": {
            "count": "5",
            "Sozialdemokratische Partei \u00d6sterreichs": {
                "197670": "Andreas SCHIEDER",
                "96998": "Evelyn REGNER",
                "197677": "G\u00fcnther SIDL",
                "197682": "Hannes HEIDE",
                "238674": "Theresa BIELOWSKI"
            }
        },
        "BEL": {
            "count": "2",
            "Parti Socialiste": {
                "124936": "Maria ARENA"
            },
            "Vooruit": {
                "5729": "Kathleen VAN BREMPT"
            }
        },
        "BGR": {
            "count": 5,
            "Bulgarian Socialist Party": {
                "197846": "Ivo HRISTOV",
                "197844": "Petar VITANOV",
                "124852": "Sergei STANISHEV",
                "197845": "Tsvetelina PENKOVA",
                "197842": "Elena YONCHEVA"
            }
        },
        "CYP": {
            "count": "2",
            "Democratic Party": {
                "124691": "Costas MAVRIDES"
            },
            "Movement for Social Democracy EDEK": {
                "124692": "Demetris PAPADAKIS"
            }
        },
        "CZE": {
            "count": "1",
            "Independent": {
                "197522": "Radka MAXOV\u00c1"
            }
        },
        "DEU": {
            "count": "16",
            "Sozialdemokratische Partei Deutschlands": {
                "1909": "Bernd LANGE",
                "96932": "Birgit SIPPEL",
                "197440": "Delara BURKHARDT",
                "124822": "Dietmar K\u00d6STER",
                "197435": "Gabriele BISCHOFF",
                "96833": "Jens GEIER",
                "124837": "Joachim SCHUSTER",
                "228286": "Karsten LUCKE",
                "197433": "Katarina BARLEY",
                "124836": "Maria NOICHL",
                "237465": "Matthias ECKE",
                "96837": "Petra KAMMEREVERT",
                "229839": "Ren\u00e9 REPASI",
                "245858": "Thomas RUDNER",
                "185619": "Tiemo W\u00d6LKEN",
                "4267": "Udo BULLMANN"
            }
        },
        "DNK": {
            "count": "3",
            "Socialdemokratiet": {
                "37312": "Christel SCHALDEMOSE",
                "199941": "Marianne VIND",
                "101585": "Niels FUGLSANG"
            }
        },
        "ESP": {
            "count": "21",
            "Partido Socialista Obrero Espa\u00f1ol": {
                "122978": "Alicia HOMS GINEL",
                "125045": "Clara AGUILERA",
                "197719": "Cristina MAESTRE MART\u00cdN DE ALMAGRO",
                "197721": "C\u00e9sar LUENA",
                "127096": "Dom\u00e8nec RUIZ DEVESA",
                "96991": "Eider GARDIAZABAL RUBIAL",
                "198329": "Estrella DUR\u00c1 FERRANDIS",
                "197717": "Ib\u00e1n GARC\u00cdA DEL BLANCO",
                "125043": "Inma RODR\u00cdGUEZ-PI\u00d1ERO",
                "28298": "Iratxe GARC\u00cdA P\u00c9REZ",
                "197742": "Isabel GARC\u00cdA MU\u00d1OZ",
                "28347": "Javier MORENO S\u00c1NCHEZ",
                "125046": "Jon\u00e1s FERN\u00c1NDEZ",
                "96812": "Juan Fernando L\u00d3PEZ AGUILAR",
                "247735": "Laura BALLAR\u00cdN CEREZA",
                "197702": "Lina G\u00c1LVEZ MU\u00d1OZ",
                "204413": "Marcos ROS SEMPERE",
                "197728": "M\u00f3nica Silvana GONZ\u00c1LEZ",
                "197722": "Nacho S\u00c1NCHEZ AMOR",
                "197718": "Nicol\u00e1s GONZ\u00c1LEZ CASARES"
            },
            "Partit dels Socialistes de Catalunya": {
                "125042": "Javi L\u00d3PEZ"
            }
        },
        "EST": {
            "count": "2",
            "Sotsiaaldemokraatlik Erakond": {
                "197491": "Marina KALJURAND",
                "197497": "Sven MIKSER"
            }
        },
        "FIN": {
            "count": "2",
            "Suomen Sosialidemokraattinen Puolue\/Finlands Socialdemokratiska Parti": {
                "197800": "Eero HEIN\u00c4LUOMA",
                "124735": "Miapetra KUMPULA-NATRI"
            }
        },
        "FRA": {
            "count": "7",
            "Parti socialiste": {
                "245018": "Christophe CLERGEAU",
                "204418": "Nora MEBAREK",
                "96952": "Sylvie GUILLAUME"
            },
            "Liste Renaissance": {
                "124693": "Pascal DURAND"
            },
            "Place publique": {
                "197697": "Aurore LALUCQ",
                "197694": "Rapha\u00ebl GLUCKSMANN"
            },
            "Nouvelle Donne": {
                "197698": "Pierre LARROUTUROU"
            }
        },
        "GRC": {
            "count": 1,
            "PASOK-KINAL": {
                "244571": "Nikos PAPANDREOU"
            }
        },
        "HRV": {
            "count": "4",
            "Socijaldemokratska partija Hrvatske": {
                "112748": "Biljana BORZAN",
                "197441": "Predrag Fred MATI\u0106",
                "112747": "Romana JERKOVI\u0106",
                "112744": "Tonino PICULA"
            }
        },
        "HUN": {
            "count": "5",
            "Demokratikus Koal\u00edci\u00f3": {
                "197587": "Attila ARA-KOV\u00c1CS",
                "124722": "Csaba MOLN\u00c1R",
                "197579": "Kl\u00e1ra DOBREV",
                "197584": "S\u00e1ndor R\u00d3NAI"
            },
            "Es\u00e9ly K\u00f6z\u00f6ss\u00e9g": {
                "124705": "Istv\u00e1n UJHELYI"
            }
        },
        "IRL": {
            "count": "0"
        },
        "ITA": {
            "count": "15",
            "Partito Democratico": {
                "239257": "Achille VARIATI",
                "124799": "Alessandra MORETTI",
                "240478": "Beatrice COVASSI",
                "124867": "Brando BENIFEI",
                "230085": "Camilla LAURETI",
                "197792": "Daniela RONDINELLI",
                "197618": "Elisabetta GUALMINI",
                "197801": "Franco ROBERTI",
                "197591": "Irene TINAGLI",
                "28346": "Mercedes BRESSO",
                "96891": "Paolo DE CASTRO",
                "28340": "Patrizia TOIA",
                "197808": "Pietro BARTOLO",
                "124846": "Pina PICIERNO"
            },
            "Independent": {
                "197590": "Giuliano PISAPIA"
            }
        },
        "LTU": {
            "count": "2",
            "Lietuvos socialdemokrat\u0173 partija": {
                "197838": "Juozas OLEKAS",
                "96681": "Vilija BLINKEVI\u010cI\u016aT\u0116"
            }
        },
        "LUX": {
            "count": "1",
            "Parti ouvrier socialiste luxembourgeois": {
                "202073": "Marc ANGEL"
            }
        },
        "LVA": {
            "count": "2",
            "Gods kalpot R\u012bgai": {
                "197783": "Andris AMERIKS"
            },
            "\u0022Saska\u0146a\u0022 soci\u0101ldemokr\u0101tisk\u0101 partija": {
                "197810": "Nils U\u0160AKOVS"
            }
        },
        "MLT": {
            "count": "4",
            "Partit Laburista": {
                "197403": "Alex AGIUS SALIBA",
                "124781": "Alfred SANT",
                "209091": "Cyrus ENGERER",
                "197394": "Josianne CUTAJAR"
            }
        },
        "NLD": {
            "count": "6",
            "Partij van de Arbeid": {
                "125021": "Agnes JONGERIUS",
                "5392": "Lara WOLTERS",
                "197782": "Mohammed CHAHIM",
                "125020": "Paul TANG",
                "218347": "Thijs REUTEN",
                "197756": "Vera TAX"
            }
        },
        "POL": {
            "count": "7",
            "Nowa Lewica": {
                "23768": "Bogus\u0142aw LIBERADZKI",
                "197496": "Marek BELKA",
                "197495": "Marek Pawe\u0142 BALT",
                "197498": "Robert BIEDRO\u0143",
                "197523": "\u0141ukasz KOHUT"
            },
            "Sojusz Lewicy Demokratycznej - Unia Pracy": {
                "197507": "W\u0142odzimierz CIMOSZEWICZ"
            },
            "Independent": {
                "197540": "Leszek MILLER"
            }
        },
        "PRT": {
            "count": "9",
            "Partido Socialista": {
                "124739": "Carlos ZORRINHO",
                "199996": "Isabel CARVALHAIS",
                "197650": "Isabel SANTOS",
                "237224": "Jo\u00e3o ALBUQUERQUE",
                "197638": "Margarida MARQUES",
                "197635": "Maria-Manuel LEIT\u00c3O-MARQUES",
                "197634": "Pedro MARQUES",
                "124747": "Pedro SILVA PEREIRA",
                "197641": "Sara CERDAS"
            }
        },
        "ROU": {
            "count": "9",
            "Partidul Social Democrat": {
                "197658": "Adrian-Drago\u015f BENEA",
                "197651": "Carmen AVRAM",
                "197653": "Claudiu MANDA",
                "124784": "Dan NICA",
                "124785": "Maria GRAPINI",
                "198183": "Mihai TUDOSE",
                "38595": "Rovana PLUMB",
                "88882": "Victor NEGRESCU"
            },
            "PRO Romania": {
                "33997": "Corina CRE\u021aU"
            }
        },
        "SVK": {
            "count": "1",
            "Independent": {
                "34578": "Robert HAJ\u0160EL"
            }
        },
        "SVN": {
            "count": "2",
            "Socialni demokrati": {
                "233862": "Matja\u017e NEMEC",
                "197446": "Milan BRGLEZ"
            }
        },
        "SWE": {
            "count": "5",
            "Arbetarepartiet- Socialdemokraterna": {
                "237779": "Carina OHLSSON",
                "197392": "Evin INCIR",
                "197391": "Hel\u00e9ne FRITZON",
                "228604": "Ilan DE BASSO",
                "253008": "Linus GLANZELIUS"
            }
        }
    },
    "Verts\/ALE": {
        "AUT": {
            "count": "3",
            "Die Gr\u00fcnen - Die Gr\u00fcne Alternative": {
                "124934": "Monika VANA",
                "197675": "Sarah WIENER",
                "190464": "Thomas WAITZ"
            }
        },
        "BEL": {
            "count": "3",
            "Ecologistes Conf\u00e9d\u00e9r\u00e9s pour l\u0027Organisation de Luttes Originales": {
                "96648": "Philippe LAMBERTS",
                "197470": "Saskia BRICMONT"
            },
            "Groen": {
                "208722": "Sara MATTHIEU"
            }
        },
        "BGR": {
            "count": "0"
        },
        "CYP": {
            "count": "0"
        },
        "CZE": {
            "count": "3",
            "PIR\u00c1TI": {
                "197546": "Marcel KOLAJA",
                "197549": "Mark\u00e9ta GREGOROV\u00c1",
                "197539": "Mikul\u00e1\u0161 PEKSA"
            }
        },
        "DEU": {
            "count": 25,
            "B\u00fcndnis 90\/Die Gr\u00fcnen": {
                "183916": "Alexandra GEESE",
                "86793": "Anna CAVAZZINI",
                "197453": "Anna DEPARNAY-GRUNENBERG",
                "106936": "Daniel FREUND",
                "197462": "Erik MARQUARDT",
                "197464": "Hannah NEUMANN",
                "197457": "Henrike HAHN",
                "197466": "Jutta PAULUS",
                "197461": "Katrin LANGENSIEPEN",
                "96752": "Martin H\u00c4USLING",
                "197449": "Michael BLOSS",
                "197465": "Niklas NIENASS",
                "197459": "Pierrette HERZBERGER-FOFANA",
                "197448": "Rasmus ANDRESEN",
                "96739": "Reinhard B\u00dcTIKOFER",
                "193273": "Romeo FRANZ",
                "197460": "Sergey LAGODINSKY",
                "96734": "Ska KELLER",
                "103381": "Terry REINTKE",
                "197451": "Viola VON CRAMON-TAUBADEL",
                "229352": "Malte GALL\u00c9E"
            },
            "Volt": {
                "197439": "Damian BOESELAGER"
            },
            "Piratenpartei Deutschland": {
                "197431": "Patrick BREYER"
            },
            "\u00d6kologisch-Demokratische Partei": {
                "206158": "Manuela RIPA"
            },
            "Independent": {
                "197423": "Nico SEMSROTT"
            }
        },
        "DNK": {
            "count": "2",
            "Socialistisk Folkeparti": {
                "197573": "Kira Marie PETER-HANSEN",
                "28161": "Margrete AUKEN"
            }
        },
        "ESP": {
            "count": "3",
            "Bloque Nacionalista Galego": {
                "24942": "Ana MIRANDA"
            },
            "Esquerra Republicana de Catalunya": {
                "197832": "Diana RIBA I GINER",
                "185974": "Jordi SOL\u00c9"
            }
        },
        "EST": {
            "count": "0"
        },
        "FIN": {
            "count": "3",
            "Vihre\u00e4 liitto": {
                "204335": "Alviina ALAMETS\u00c4",
                "2054": "Heidi HAUTALA",
                "197802": "Ville NIINIST\u00d6"
            }
        },
        "FRA": {
            "count": "12",
            "R\u00e9gions et Peuples Solidaires": {
                "96750": "Fran\u00e7ois ALFONSI",
                "249285": "Lydie MASSARD"
            },
            "Europe \u00c9cologie": {
                "197512": "Beno\u00eet BITEAU",
                "197506": "Caroline ROOSE",
                "204420": "Claude GRUFFAT",
                "197574": "Damien CAR\u00caME",
                "197503": "David CORMAND",
                "250918": "Fran\u00e7ois THIOLLET",
                "197531": "Gwendoline DELBOS-CORFIELD",
                "96868": "Karima DELLI",
                "97236": "Marie TOUSSAINT",
                "197500": "Mounir SATOURI"
            }
        },
        "GRC": {
            "count": "1",
            "KOSMOS": {
                "197743": "Petros KOKKALIS"
            }
        },
        "HRV": {
            "count": "0"
        },
        "HUN": {
            "count": "0"
        },
        "IRL": {
            "count": "2",
            "Green Party": {
                "197654": "Ciar\u00e1n CUFFE",
                "197889": "Grace O\u0027SULLIVAN"
            }
        },
        "ITA": {
            "count": "3",
            "Independent": {
                "124856": "Ignazio CORRAO",
                "124844": "Piernicola PEDICINI",
                "124835": "Rosa D\u0027AMATO"
            }
        },
        "LTU": {
            "count": "2",
            "Independent": {
                "197837": "Stasys JAKELI\u016aNAS"
            },
            "Lietuvos valstie\u010di\u0173 ir \u017eali\u0173j\u0173 s\u0105junga": {
                "125214": "Bronis ROP\u0116"
            }
        },
        "LUX": {
            "count": "1",
            "D\u00e9i Gr\u00e9ng - Les Verts": {
                "193292": "Tilly METZ"
            }
        },
        "LVA": {
            "count": "0"
        },
        "MLT": {
            "count": "0"
        },
        "NLD": {
            "count": "3",
            "GroenLinks": {
                "96725": "Bas EICKHOUT",
                "197870": "Kim VAN SPARRENTAK",
                "197772": "Tineke STRIK"
            }
        },
        "POL": {
            "count": "1",
            "Independent": {
                "197550": "Sylwia SPUREK"
            }
        },
        "PRT": {
            "count": "1",
            "Independente": {
                "197645": "Francisco GUERREIRO"
            }
        },
        "ROU": {
            "count": "1",
            "Independent": {
                "58766": "Nicolae \u015eTEF\u0102NU\u021a\u0102"
            }
        },
        "SVK": {
            "count": "0"
        },
        "SVN": {
            "count": "0"
        },
        "SWE": {
            "count": "3",
            "Milj\u00f6partiet de gr\u00f6na": {
                "197395": "Alice KUHNKE",
                "183338": "Jakop G. DALUNDE",
                "197398": "P\u00e4r HOLMGREN"
            }
        }
    },
    "The Left": {
        "AUT": {
            "count": "0"
        },
        "BEL": {
            "count": "1",
            "Parti du Travail de Belgique": {
                "187917": "Marc BOTENGA"
            }
        },
        "BGR": {
            "count": "0"
        },
        "CYP": {
            "count": "2",
            "Progressive Party of Working People - Left - New Forces": {
                "197416": "Giorgos GEORGIOU",
                "197415": "Niyazi KIZILY\u00dcREK"
            }
        },
        "CZE": {
            "count": "1",
            "Komunistick\u00e1 strana \u010cech a Moravy": {
                "23699": "Kate\u0159ina KONE\u010cN\u00c1"
            }
        },
        "DEU": {
            "count": "5",
            "DIE LINKE.": {
                "96852": "Cornelia ERNST",
                "96646": "Helmut SCHOLZ",
                "190517": "Martin SCHIRDEWAN",
                "120478": "Martina MICHELS",
                "197468": "\u00d6zlem DEMIREL"
            }
        },
        "DNK": {
            "count": "1",
            "Enhedslisten": {
                "197571": "Nikolaj VILLUMSEN"
            }
        },
        "ESP": {
            "count": "6",
            "PODEMOS": {
                "251249": "Esther SANZ SELVA",
                "197785": "Eugenia RODR\u00cdGUEZ PALOP",
                "197827": "Idoia VILLANUEVA RUIZ",
                "250572": "Patricia CARO MAYA"
            },
            "Izquierda Unida": {
                "197828": "Manu PINEDA"
            },
            "ANTICAPITALISTAS": {
                "131507": "Miguel URB\u00c1N CRESPO"
            }
        },
        "EST": {
            "count": "0"
        },
        "FIN": {
            "count": "1",
            "Vasemmistoliitto": {
                "197805": "Silvia MODIG"
            }
        },
        "FRA": {
            "count": "6",
            "La France Insoumise": {
                "197529": "Leila CHAIBI",
                "197533": "Manon AUBRY",
                "236053": "Marina MESURE",
                "30482": "Younous OMARJEE"
            },
            "Gauche r\u00e9publicaine et socialiste": {
                "24505": "Emmanuel MAUREL"
            },
            "Ind\u00e9pendant": {
                "197527": "Anne-Sophie PELLETIER"
            }
        },
        "GRC": {
            "count": "4",
            "Coalition of the Radical Left": {
                "197699": "Elena KOUNTOURA",
                "197701": "Konstantinos ARVANITIS"
            },
            "New Left": {
                "28586": "Dimitrios PAPADIMOULIS",
                "130833": "Stelios KOULOGLOU"
            }
        },
        "HRV": {
            "count": "0"
        },
        "HUN": {
            "count": "0"
        },
        "IRL": {
            "count": "4",
            "Independents for change": {
                "197731": "Clare DALY",
                "197817": "Mick WALLACE"
            },
            "Independent": {
                "124985": "Luke Ming FLANAGAN"
            },
            "Sinn F\u00e9in": {
                "205452": "Chris MACMANUS"
            }
        },
        "ITA": {
            "count": "0"
        },
        "LTU": {
            "count": "0"
        },
        "LUX": {
            "count": "0"
        },
        "LVA": {
            "count": "0"
        },
        "MLT": {
            "count": "0"
        },
        "NLD": {
            "count": "1",
            "Partij voor de Dieren": {
                "125023": "Anja HAZEKAMP"
            }
        },
        "POL": {
            "count": "0"
        },
        "PRT": {
            "count": 4,
            "Bloco de Esquerda": {
                "88715": "Jos\u00e9 GUSM\u00c3O",
                "96820": "Marisa MATIAS"
            },
            "Partido Comunista Portugu\u00eas": {
                "136236": "Jo\u00e3o PIMENTA LOPES",
                "197754": "Sandra PEREIRA"
            }
        },
        "ROU": {
            "count": "0"
        },
        "SVK": {
            "count": "0"
        },
        "SVN": {
            "count": "0"
        },
        "SWE": {
            "count": "1",
            "V\u00e4nsterpartiet": {
                "124992": "Malin BJ\u00d6RK"
            }
        }
    }
}